%YAML 1.1
%TAG !u! tag:unity3d.com,2011:
--- !u!114 &11400000
MonoBehaviour:
  m_ObjectHideFlags: 0
  m_CorrespondingSourceObject: {fileID: 0}
  m_PrefabInstance: {fileID: 0}
  m_PrefabAsset: {fileID: 0}
  m_GameObject: {fileID: 0}
  m_Enabled: 1
  m_EditorHideFlags: 0
  m_Script: {fileID: 11500000, guid: f4a19299bd11338428b5a9940a719948, type: 3}
  m_Name: AppData
  m_EditorClassIdentifier: 
  BHEffectEnabled: 1
  BHApproxEnabled: 0
  SkySetting: 0
