%YAML 1.1
%TAG !u! tag:unity3d.com,2011:
--- !u!1045 &1
EditorBuildSettings:
  m_ObjectHideFlags: 0
  serializedVersion: 2
  m_Scenes:
  - enabled: 1
    path: Assets/Scenes/MenuScene.unity
    guid: 3e67d19d81159b64898517b2b06db2aa
  - enabled: 1
    path: Assets/Scenes/BHScene.unity
    guid: 3db1837cc97a95e4c98610966fac2b0b
  m_configObjects:
    Unity.XR.WindowsMR.Settings: {fileID: 11400000, guid: e8bfadb5593d22246a09a1df5563af87, type: 2}
    com.unity.xr.management.loader_settings: {fileID: 11400000, guid: 8de12a1a5f14da74b8fffcbf77afb4b3, type: 2}
    com.unity.xr.openxr.settings4: {fileID: 11400000, guid: bd891ad9c674b8c41b72c80a372e29dc, type: 2}
    xr.sdk.mock-hmd.settings: {fileID: 11400000, guid: 118be2ef2b2a59146a1e666e0e7cd979, type: 2}
